…
Tidy dataset has next dimensions: 15480 observations and 4 variables.
Variables are: `subject, activity_type, sensor_measurment` and `average_value`.
**There are 30 subjects, performing 6 types of activites, with 86 different sensor measurement for each of the activity.**

**Each observation (row) is an average value of a specific sensor measurment, of a particular individual performing one of the activities.**

``` r
# First 10 rows of the tidy data
tidy_url
  # A tibble: 15,480 x 4
     subject      activity_type             sensor_measurement average_value
       <int>             <fctr>                         <fctr>         <dbl>
   1       1            WALKING time_body_accelerometer_mean_x     0.2773308
   2       1   WALKING_UPSTAIRS time_body_accelerometer_mean_x     0.2554617
   3       1 WALKING_DOWNSTAIRS time_body_accelerometer_mean_x     0.2891883
   4       1            SITTING time_body_accelerometer_mean_x     0.2612376
   5       1           STANDING time_body_accelerometer_mean_x     0.2789176
   6       1             LAYING time_body_accelerometer_mean_x     0.2215982
   7       2            WALKING time_body_accelerometer_mean_x     0.2764266
   8       2   WALKING_UPSTAIRS time_body_accelerometer_mean_x     0.2471648
   9       2 WALKING_DOWNSTAIRS time_body_accelerometer_mean_x     0.2776153
  10       2            SITTING time_body_accelerometer_mean_x     0.2770874
  # ... with 15,470 more rows
…
